…
#### Linear Model

First, we will fit the full model to the data. One of the considerations
we have with the dataset is how to deal with NA values in the data. We
know that fitting the model will automatically do a listwise deletion,
removing the rows/observations from the data that contain NAs for the
variables being used in the model.

After removing those variables with significant missing values, we fit a
linear model to try to predict the number of requests based on the
item’s information.

    ## # A tibble: 88 x 5
    ##    term               estimate std.error statistic   p.value
    ##    <chr>                 <dbl>     <dbl>     <dbl>     <dbl>
    ##  1 (Intercept)       -368.       237.      -1.55   1.20e-  1
    ##  2 collection_idPM2     0.0337     0.378    0.0892 9.29e-  1
    ##  3 collection_idPM9    -0.416      2.48    -0.168  8.67e-  1
    ##  4 collection_idPMF    -0.0243     0.177   -0.137  8.91e-  1
    ##  5 collection_idPML    -0.557      0.371   -1.50   1.34e-  1
    ##  6 collection_idPMLF   -0.430      1.24    -0.347  7.29e-  1
    ##  7 collection_idPMMS   -0.131      0.137   -0.955  3.39e-  1
    ##  8 collection_idPMR    -1.38       0.219   -6.28   3.43e- 10
    ##  9 collection_idPMV     0.899      0.570    1.58   1.15e-  1
    ## 10 collection_idPMX     7.81       0.249   31.4    1.43e-212
    ## # … with 78 more rows
…
    ## # A tibble: 1 x 11
    ##   r.squared adj.r.squared sigma statistic p.value    df  logLik    AIC
    ##       <dbl>         <dbl> <dbl>     <dbl>   <dbl> <int>   <dbl>  <dbl>
    ## 1    0.0927        0.0896  3.50      30.6       0    83 -65868. 1.32e5
    ## # … with 3 more variables: BIC <dbl>, deviance <dbl>, df.residual <int>

This is our best model, with only variables `publication date`,
`format`, `collection_id`, and `language` included in it, meaning that
only these four variables have a significant impact on the number of
loan requests.

The best model’s final R-squared value is 0.0926558.

    ## # A tibble: 83 x 5
    ##    term               estimate std.error statistic   p.value
    ##    <chr>                 <dbl>     <dbl>     <dbl>     <dbl>
    ##  1 (Intercept)       -371.       237.      -1.57   1.17e-  1
    ##  2 collection_idPM2     0.0297     0.378    0.0786 9.37e-  1
    ##  3 collection_idPM9    -0.414      2.48    -0.167  8.67e-  1
    ##  4 collection_idPMF    -0.0270     0.177   -0.152  8.79e-  1
    ##  5 collection_idPML    -0.557      0.371   -1.50   1.33e-  1
    ##  6 collection_idPMLF   -0.436      1.24    -0.352  7.25e-  1
    ##  7 collection_idPMMS   -0.136      0.137   -0.993  3.21e-  1
    ##  8 collection_idPMR    -1.37       0.219   -6.27   3.79e- 10
    ##  9 collection_idPMV     0.896      0.570    1.57   1.16e-  1
    ## 10 collection_idPMX     7.81       0.249   31.4    1.41e-212
    ## # … with 73 more rows
…
